[
  [
    ["10.10.2.2", "10.10.3.1", "10.10.7.2", "10.10.8.2"],
    ["10.10.6.2", "10.10.8.1"],
    ["10.10.5.1", "10.10.6.1"],
    ["10.10.5.2", "10.10.7.1", "10.10.31.2"]
  ],
  [
    ["10.10.3.2", "10.10.21.1", "10.10.24.1", "10.10.32.1"],
    ["10.10.21.2", "10.10.22.1"],
    ["10.10.22.2", "10.10.23.1"],
    ["10.10.23.2", "10.10.24.2", "10.10.30.2"]
  ],
  [
    ["10.10.4.2", "10.10.17.1", "10.10.20.1", "10.10.32.2"],
    ["10.10.17.2", "10.10.18.1"],
    ["10.10.18.2", "10.10.19.2", "10.10.29.2"],
    ["10.10.19.1", "10.10.20.2", "10.10.28.2"]
  ],
  [
    ["10.10.1.1", "10.10.4.1", "10.10.15.2", "10.10.16.2"],
    ["10.10.14.1", "10.10.15.1"],
    ["10.10.13.2", "10.10.14.2", "10.10.27.2"],
    ["10.10.13.1", "10.10.16.1"]
  ],
  [
    ["10.10.1.2", "10.10.2.1", "10.10.10.2", "10.10.11.1"],
    ["10.10.11.2", "10.10.12.2", "10.10.26.2"],
    ["10.10.9.1", "10.10.12.1", "10.10.25.2"],
    ["10.10.9.2", "10.10.10.1"]
  ]
]
